757957 290891
873526 500026
519990 183229
647242 438985
447085 863483
104131 964798
474173 263041
87864 487236
348602 863478
566334 160942
272914 103660
277856 934072
871326 69980
360448 249250
260809 524790
183146 388662
463978 247075
789306 801793
672752 229276
105823 807447
232963 620111
976107 210085
264194 141645
629773 562675
238582 308451
500453 866329
934418 60076
393132 898250
603215 874726
829651 663061
547272 36390
826587 745935
175939 595541
101728 658983
980025 579389
13175 705907
719282 16419
524307 214826
705633 142037
653270 983172
361866 91848
949029 124394
342106 45735
441710 805413
15532 596968
465468 196908
698125 894325
799651 858089
556056 243484
555831 468863
258409 779733
877184 393516
832336 944852
168350 313732
443912 35176
777566 44737
229352 483747
23919 799910
741013 906254
669356 700887
89916 15567
87576 559055
171612 598029
837795 492123
661839 134776
434180 552264
664874 380727
697413 839269
497044 771784
577045 590951
993118 597760
437428 674304
273124 62986
314132 931047
467274 369744
102592 665375
825105 232297
809826 765214
194956 113902
365336 941485
1755 690855
888582 228611
762959 344932
486688 388135
369583 276451
521265 928871
697569 135466
162013 401031
676300 273222
914157 757725
597108 1276
383734 489469
832390 102736
862642 108082
40353 57774
120794 282303
362924 343062
882774 522735
981959 931220
556544 541102
987559 793385
893071 823061
526877 544303
998228 392687
212727 247427
141241 480475
426987 902848
198312 928716
919664 497654
114011 468038
844194 185316
701745 459105
867444 520682
373064 975977
659950 113496
44368 21455
380288 92970
880414 150789
297656 504480
593805 470412
27010 310030
924726 644150
568666 154227
650018 71641
763396 522206
935861 17025
233727 98279
113637 237886
760827 872386
99794 355829
620227 75649
248629 489735
625525 686859
206076 789776
677866 307390
841817 908318
601523 693176
320396 985902
498042 559126
493643 556901
906090 345057
696929 167782
617039 417720
771404 609192
309078 642038
392751 216303
467579 595464
714642 402348
22937 841634
75261 410425
654979 798570
490436 894125
465747 90026
349855 624394
907424 175527
588599 665792
847966 309841
131222 139006
983389 524504
531481 694595
235863 638074
477660 786362
537553 299262
730314 703180
275967 660998
444403 700479
687639 746976
173937 895589
451528 547815
713016 812529
331903 418972
300053 979150
657786 626192
512 632922
571474 182250
894179 549005
944133 978707
169085 755231
85734 207130
641339 914084
208052 965430
741014 932010
954274 332691
713229 61464
953078 690988
28456 490263
117053 249669
153444 671305
771140 373345
777552 126215
36760 52680
91542 486784
97212 511849
751094 512083
157815 404992
535594 621483
381512 240143
857447 775086
220884 908034
885196 115756
286723 268118
826551 328922
769209 309124
853798 982042
596505 292533
176679 956598
239777 639301
936004 827403
82384 192919
388887 180312
333468 506047
138626 682022
832965 151619
727046 113217
960375 954010
385207 575963
615599 73330
869723 484978
168913 378448
273865 765280
626556 227153
160673 810914
274755 156249
394961 894237
73073 510937
464384 443657
667612 677195
53064 434027
739396 91333
581718 179881
458532 357960
923701 647162
86149 166940
741123 397029
807798 792444
543000 553477
169712 514453
812885 671005
228865 263012
669831 248750
332045 696947
977479 101580
526026 217107
613880 446723
52026 594819
277606 578433
685033 122495
850853 400424
324612 59615
532194 374535
