720512 738309
613718 673647
566961 720284
328422 834300
813132 849615
549196 661557
200694 218454
602656 806340
847020 888572
273214 793031
238700 283945
909952 995451
773355 942555
231980 485154
278705 833907
198808 747121
346840 426852
777851 929952
642885 748809
516911 597160
724935 891334
946903 967458
250949 824954
698983 908878
641562 934088
17928 514760
188630 784128
846556 866472
79929 194317
460668 877607
13708 626288
528213 805979
856214 868602
845290 889577
425555 479572
317210 337722
953910 970742
558386 902370
332495 892652
479847 578065
973939 978440
91514 737649
300005 835167
747205 880798
310069 872631
530667 660981
471322 608079
954840 965603
939394 977544
323706 990180
755772 779813
737050 791141
860785 974006
216161 747540
347315 893888
99482 734927
8783 91560
554465 851539
911714 998257
557699 898605
76375 654356
392950 427263
551501 763454
799819 822275
905647 977156
388211 471984
371083 854181
101710 474906
91875 808057
21300 649745
697252 911493
751896 766742
90852 289249
72312 541494
39254 494796
977612 982891
211273 507861
885175 926919
550319 922566
927502 951870
29959 829024
499439 718263
294046 698011
994652 995349
179462 191918
638168 969481
299729 828685
702156 933504
826488 990101
501335 545672
108970 211875
954865 993181
324338 911582
908318 934889
389209 952354
998812 999716
670262 848305
839547 941337
954413 992971
438747 711238
346306 590598
744115 818418
786685 910527
698910 854046
933747 971449
344145 586732
219801 233408
891256 991466
191045 907373
771903 856849
655620 960917
82533 236033
199322 930465
299554 734421
607331 707662
945826 969318
975644 992579
313779 428201
858193 874745
544928 753847
446677 456964
44155 472818
745856 772843
161173 623251
719692 766717
217359 875738
540699 674258
937800 999977
61698 839106
546729 893785
48751 808490
601893 670365
819528 877628
211477 666051
892882 948639
240426 786273
646632 931655
799526 815219
738567 928715
991288 995040
497384 838054
367783 680527
748311 918552
578650 615961
683304 704397
404244 782022
938522 956148
828236 925815
652756 716145
521345 592625
260501 593756
686840 736834
97884 534504
563549 844174
659633 955816
537378 638116
394822 538105
120397 367008
605989 776891
988962 990015
215195 482387
790735 937492
32521 760517
887537 909602
47006 643055
26405 909939
827141 903319
76895 272747
282495 396230
1662 697548
354025 781943
977080 989629
29066 883128
478763 489360
314831 962956
894732 914137
771747 786393
887081 947814
846839 948130
717423 732478
608092 918915
512400 662135
708724 720942
714846 999725
328541 443756
66961 80548
433364 585595
332886 886849
93111 373007
640285 667624
275088 431148
915092 995233
699319 720432
817748 898507
464825 859213
380681 439346
686908 760700
637529 983325
266577 879218
218735 362192
408599 571767
849906 864789
561394 864736
907771 946823
724210 900091
365429 565113
825383 869962
193752 629888
138666 799102
872152 924358
377084 644536
687470 853158
853827 927978
242124 807540
956934 978529
799950 943142
397072 646267
672887 925261
396362 433810
557780 765794
259746 355744
482858 488329
842479 903564
918073 943337
463674 923877
783065 899701
767137 909309
457247 659302
89621 445630
900641 989307
963983 988562
786419 964077
846878 863821
867205 938378
451415 662885
744173 798688
15983 385159
98979 958407
710707 866632
825407 979450
828709 937866
597753 842629
279334 770295
818687 828130
913024 939432
846840 999859
737487 829416
769237 791320
866415 909251
610063 979058
119040 795540
931040 974874
125747 664799
124081 320806
959073 965217
356753 769866
800177 975915
180870 215659
317035 462283
869320 975230
421549 431011
233487 560420
216680 720678
397117 436653
884757 891827
647994 794574
25866 586672
220810 441014
354539 478224
371913 852029
232562 687611
679561 990124
598349 648793
581279 648999
456784 936974
134427 619691
33379 562917
570368 636795
391535 949649
103303 838369
678618 736591
567481 888806
112946 958849
43150 56108
680676 685369
302052 303699
719680 829771
42043 984222
399065 924259
85666 969726
94118 664768
484066 634788
368410 752735
429565 669400
662989 993847
483845 717027
33817 73848
402049 474940
198878 221287
988130 998296
