416260 702343 509
869205 461592 525
10138 986198 525
280754 439785 449
756558 37362 509
125801 958536 525
145471 489368 449
304774 51907 443
437897 631078 509
952263 847398 507
734116 668816 504
269788 824500 509
519942 785936 509
15919 547031 470
802775 849827 525
270442 954308 525
63880 225600 386
741251 275593 509
405158 756415 509
644866 788233 504
872996 811810 525
721898 764124 424
489176 377388 449
306289 833574 509
242579 833538 509
87438 776288 509
213166 77368 383
346391 100503 443
849523 154392 525
237555 791049 509
239485 833060 509
961436 598026 525
384653 664377 509
393969 125747 443
772498 913555 525
467967 703173 509
789429 665654 504
714733 879836 525
332722 75995 443
184006 437488 449
59514 346491 443
133831 13347 354
13132 813551 509
201783 744444 509
352550 139840 443
310175 514615 470
514740 689465 509
487030 714760 509
93280 396934 443
766995 17008 509
167461 783591 509
523929 496284 470
804551 827891 450
829091 609586 509
225877 899 386
174837 967365 525
406464 460619 449
983318 223647 525
166379 937321 525
693642 967224 525
241806 947428 525
687014 673193 398
292401 38425 443
485714 785722 509
228723 514304 470
945112 104613 525
581746 493988 470
793809 927787 525
526518 871156 525
766423 992183 525
243934 376775 441
97388 778160 509
176908 354815 443
536320 813754 509
979459 313817 525
985792 211154 525
286084 135755 443
4644 779399 509
536301 140635 470
132644 632192 509
498013 784912 509
776490 509406 509
837272 683415 504
478818 352679 449
547290 815715 509
658249 455017 509
819336 509458 509
163850 878997 525
773244 555189 509
570220 983535 525
111458 315798 443
216686 60460 386
213178 636299 509
579749 25594 470
437702 60858 449
82333 41719 351
480830 349531 449
423777 858491 525
744308 239715 509
803295 69358 509
204885 431161 449
728689 258752 509
955869 513864 525
231572 767086 509
680176 719945 504
210395 907105 525
737779 869087 525
494803 45018 449
540007 841979 525
100199 308302 443
352675 524931 470
828747 610153 509
124652 430809 449
760811 51972 509
439425 582656 470
680576 518094 509
548533 455342 470
169035 350330 443
520823 336388 470
497119 454183 444
906925 329545 525
192287 18529 383
573552 598904 434
127155 857650 525
107484 408181 443
59740 331384 443
269015 149084 443
672159 580126 509
865889 878684 432
849729 387943 525
698006 173882 509
376023 409113 436
889050 472487 525
19782 168245 383
670863 714786 504
666639 152281 509
488117 959050 525
471914 782205 509
438368 547117 470
135966 740344 509
939032 634105 525
278449 386128 441
847739 88291 525
37366 959880 525
665192 23742 509
731241 860893 525
98015 629027 509
894943 455617 525
78433 600211 470
651096 987900 525
679995 161451 509
779713 783491 362
598139 738754 509
10426 485808 449
192682 782035 509
667455 280776 509
694297 201058 509
438702 542913 470
916743 696 525
796746 641194 504
984882 373365 525
838390 786482 525
981812 182010 525
773638 545206 509
90200 40386 351
20872 907007 525
785360 531648 509
385346 517328 470
287876 326335 389
623542 496303 470
873670 917091 476
345541 867415 525
490046 113452 449
227192 141339 386
615882 582319 447
871239 308569 525
609025 466951 470
651890 503131 509
729726 735659 380
614433 899489 525
386987 598944 470
1630 970418 525
797958 965736 525
530278 240932 470
296602 60924 443
15802 307493 443
61874 656863 509
21004 822193 509
388586 396554 436
930906 323339 525
43606 586054 470
935675 845554 476
633706 974075 525
250488 717026 509
380653 120710 443
642149 612044 509
263387 243243 407
148369 602059 470
362866 643969 509
61500 818774 509
388794 474395 449
139984 85531 354
544406 773692 509
790636 521823 509
41707 825016 509
824858 604098 509
870804 253698 525
246616 31681 443
954447 943695 414
260049 267051 407
66598 91040 351
971951 248407 525
990838 386999 525
589386 851222 525
457730 79448 449
384677 323197 441
754978 112743 509
935203 434706 525
732656 63993 509
555263 740308 509
70400 894750 525
437104 711706 509
219718 539896 470
983064 321130 525
539012 934532 525
506253 320547 449
940172 630762 525
887620 83563 525
297988 843891 525
10202 448717 449
186123 822468 509
32446 275214 443
621690 525325 452
616175 965053 525
239051 704925 509
462481 437785 444
370250 515726 470
394468 424439 449
198411 661476 509
134797 683874 509
255745 752313 509
578472 472205 470
534848 505214 470
506526 36829 449
316671 126617 443
329439 67032 443
8068 184655 383
858486 786156 525
945654 498235 525
55688 995950 525
934386 189883 525
839448 394016 525
648352 151644 509
911101 607909 525
357834 308239 441
180238 349737 443
495017 950952 525
506932 314091 449
592403 649052 509
525225 292979 470
76445 258521 443
111504 461867 449
965390 164592 525
273885 476711 449
716352 249468 509
703109 525448 509
425181 590993 470
662685 183999 509
944628 979005 458
213916 385427 443
755467 921497 525
68057 879357 525
430885 511305 444
184980 689518 509
451682 872239 525
