743247 245852
865176 443498
640674 653462
832896 794836
580177 402968
823954 371241
24764 447792
598622 479840
639550 244818
393067 630856
609193 258274
410329 796425
369548 902992
143247 847256
603298 935883
898097 836793
309204 194273
87799 332591
239870 653705
470122 486279
692409 622197
737292 937591
968292 9590
932118 175752
973766 361146
951005 89846
318062 383283
190211 166332
439381 332324
415028 392395
131429 928775
287995 558712
46869 874548
495172 115850
788618 227195
474639 603335
94582 965348
370842 802949
534945 151001
487479 670094
300812 231169
608851 198267
568205 921634
957732 475734
412633 971552
977327 434366
500606 116994
757250 502374
317376 877803
809745 953992
826428 626815
32770 290986
85133 826155
524935 294002
984199 202646
951681 567686
254493 367432
42399 964292
951399 128800
289727 218026
115664 189128
650553 675668
338869 587245
837462 600430
605674 233654
58838 705579
220026 436143
608508 799103
323827 210157
113196 810288
626516 25324
232146 199335
119345 779894
139744 790942
323306 85189
605317 46418
382626 349677
361093 65897
398440 429357
52303 176859
893326 10670
12487 141740
447547 718677
908426 153119
208162 185745
326273 152971
127542 720019
341649 409963
680464 660036
828331 682937
378005 614607
401941 299938
869292 191964
961698 370929
622718 25941
361713 426723
295861 973674
91234 544994
894692 6858
14931 449642
717580 542408
670824 73425
252390 565808
53083 65611
673298 259078
318422 635489
108888 764454
955209 250133
510711 275715
334181 977118
386335 913145
869846 903728
621927 452319
830892 239730
351362 450618
870824 101764
433878 431246
309318 269924
88296 30228
157263 640110
298325 204877
178871 766018
795735 119193
382108 601434
234619 909266
133213 307055
78236 69572
9020 563735
627288 415983
139019 695426
511921 238113
737583 391563
138139 49004
349252 779565
670517 973084
851721 153241
633961 264465
95858 616587
649938 951758
109598 94760
194181 463167
799675 193974
497403 840280
43788 828827
912261 379841
121513 120457
924030 656402
348693 434408
197324 688942
714582 549530
506007 431223
10745 97795
329445 102849
412762 523080
624557 687831
575382 116797
671132 431784
311959 681571
349648 793050
632962 330200
554937 671087
712273 595423
233789 771277
93179 18560
157666 330520
170159 628673
883362 35393
144515 997776
204935 201541
753194 518679
383606 377368
722248 629641
356561 450260
174709 665218
617180 947352
384322 814096
437538 39743
194863 2523
668551 420566
100593 281436
709906 340425
740766 783107
