10243 71485 340
48147 67322 340
5950 9304 262
22260 37007 324
3671 60917 340
52244 72721 340
17269 59662 340
58584 77533 351
18643 23902 282
65935 91231 351
27830 40859 324
5663 65030 340
48056 77858 351
34355 81534 351
29880 43858 324
23964 91537 351
48363 56058 340
8930 76294 340
11720 33570 308
52827 79143 351
38023 50541 314
10569 21427 279
184 22931 279
8696 87209 351
30211 88226 351
30104 66862 340
12654 94629 351
14523 60936 340
28407 92855 351
24883 48335 324
48592 80025 351
1500 60796 340
23753 50989 324
24647 59268 340
43440 87146 351
55216 70038 335
76751 85617 351
6425 28897 308
42906 53057 340
18966 66619 340
68365 87931 351
9275 18661 279
65717 81006 351
39854 47273 314
35783 46327 314
55521 66631 335
9159 30846 308
24494 85076 351
6617 50391 324
33889 66227 340
40153 51240 314
8167 94227 351
4375 99632 351
23567 79593 351
11990 13117 263
34667 77965 351
29963 44232 324
55864 67002 335
32733 91011 351
27966 34999 311
37785 74294 340
13933 30000 308
25 86404 351
19360 24852 282
76151 78278 351
29849 42746 324
31258 38578 324
66325 83025 351
44185 48127 314
846 94096 351
7522 75697 340
16593 68392 340
4462 39034 324
62677 98351 351
51374 72383 340
1573 86445 351
56647 61715 335
13130 26373 282
1985 12206 268
15557 46035 324
58240 91999 351
17930 90213 351
6336 89000 351
38731 87604 351
52634 88456 351
12462 83597 351
5385 7361 262
60550 66807 335
28275 84411 351
67728 74076 325
17899 70250 340
68018 83876 351
66198 72491 325
43179 86124 351
8362 88287 351
39362 55511 340
74341 74851 325
6495 44911 324
15092 79527 351
10097 68180 340
16565 90914 351
74176 84181 351
9184 92820 351
3660 62967 340
18076 67274 340
12238 84907 351
24190 76242 340
12665 13262 276
15427 17472 266
36564 79729 351
11483 29914 308
35786 85172 351
71997 92101 351
11508 64517 340
1393 52595 340
40304 94780 351
18901 96634 351
9191 12512 268
18570 69011 340
22164 87628 351
1924 33716 308
16230 57285 340
35918 68921 340
26569 91304 351
80101 89501 333
34192 79399 351
81085 85647 320
30431 39766 324
13740 30313 308
22127 34230 308
40255 56263 340
29162 58462 340
21896 42902 324
75093 92425 351
58278 59106 273
39012 67081 340
68034 74981 325
84342 93657 333
16274 98210 351
77459 83093 338
3075 44998 324
10455 37998 324
1432 15513 276
74378 88675 351
22770 85869 351
11013 80105 351
17386 38063 324
78742 89708 338
60471 73325 335
65737 99480 351
26428 30327 308
86896 94302 333
12835 32127 308
73981 74056 263
51844 69050 340
3705 40049 324
11108 78417 351
13486 21496 279
56209 66272 335
43086 99097 351
18879 41549 324
56062 94247 351
12089 37501 324
49316 97687 351
50265 63797 340
18302 21059 274
72959 76912 325
49092 78234 351
26285 69169 340
25611 89378 351
63375 88508 351
64855 72411 325
65615 79783 351
38538 98569 351
535 60102 340
57621 67488 335
36065 36767 249
4896 19129 279
23261 94494 351
57186 85177 351
38838 72381 340
33610 47335 324
12239 93029 351
5906 34271 311
11518 58238 340
47178 83989 351
18117 71442 340
71736 99859 351
15630 19265 279
30755 44214 324
24373 69627 340
9437 77589 351
3884 98601 351
36344 70445 340
52696 78930 351
20991 98253 351
4205 88422 351
42172 80584 351
5782 45956 324
84103 92241 333
78980 83210 320
43573 53499 340
42372 51946 314
74888 82824 351
6087 73141 340
20927 59434 340
61165 69188 330
5685 59938 340
8037 9841 260
53642 64587 335
50138 83442 351
35350 63617 340
28058 72719 340
47798 62912 340
40761 67687 340
59212 62323 335
46482 76919 340
15717 22435 279
32710 89361 351
61264 75381 330
26420 66388 340
31561 35039 311
11994 95780 351
69419 87903 351
19556 29347 308
77311 88995 338
1531 95839 351
27483 44811 324
67673 88528 351
2456 21443 279
501 58759 340
76427 99445 351
35460 64151 340
74693 81284 351
22620 78693 351
28169 49123 324
44561 64308 340
8238 40550 324
37943 76856 340
61481 65906 330
3224 54133 340
1951 85314 351
4066 24594 282
14145 75263 340
63256 66865 330
8534 98410 351
14186 88872 351
5625 50656 324
1477 78220 351
5213 34576 311
