838599 424443 525
720488 478714 509
306346 165196 443
20067 920377 525
301431 508546 449
892252 188502 525
213471 839651 525
182954 266042 443
363533 472408 449
646806 496920 509
367220 583625 470
252203 382803 441
290654 79482 443
975525 225480 525
556505 247482 470
779409 59865 509
50998 218729 386
707023 781900 468
644540 539012 509
795817 113009 509
371037 619464 470
966015 553179 525
492396 889930 525
821240 991264 525
734404 439418 509
513422 784202 509
28768 593245 470
528128 918656 525
396513 709879 509
910750 959956 507
989993 207452 525
215409 265848 443
882637 937033 476
269383 179252 443
464756 224160 449
548298 282633 470
261407 361312 441
433490 978921 525
615646 197168 470
332750 99760 443
254614 369816 441
69106 119550 354
330440 456594 449
805374 859957 525
522701 189221 470
773225 198957 509
640029 475423 509
353179 389614 436
502491 976995 525
939062 305495 525
738204 606359 509
264818 219672 443
772892 212998 509
939526 532628 525
734460 721004 411
596931 995689 525
798653 438675 509
38974 293806 443
863601 884388 432
403669 125763 443
185941 319216 443
861257 624205 525
825405 390619 509
795178 312801 509
119628 584915 470
125926 76161 354
427691 272899 449
431938 412729 418
93825 374271 443
524294 762240 509
667432 629676 442
65538 601252 470
174684 622564 470
646319 779996 504
836578 555071 509
419214 191772 449
778981 133778 509
36826 375626 443
618663 735182 509
944382 738014 525
106427 278914 443
865685 279240 525
661462 591696 509
948007 905976 507
476055 649982 509
908114 879715 445
890025 633958 525
541750 703337 509
260862 747665 509
338285 537998 470
446203 198431 449
58684 352566 443
690764 583907 509
268581 647718 509
932068 886451 476
553296 829349 509
202952 367588 443
63666 642276 509
408643 90755 443
259175 331984 407
902384 750118 525
325986 11765 443
741053 696964 504
891965 117349 525
43015 954007 525
198499 182714 360
778889 174222 509
717402 548536 509
910489 838485 476
492347 135888 449
624270 770416 509
574437 216774 470
797421 912043 525
364380 113172 443
619601 356189 470
632846 328533 509
359832 964856 525
163317 618253 470
434642 909814 525
716867 188805 509
579388 665795 509
916634 111759 525
367190 169620 443
39870 837995 525
274864 440953 449
94708 891057 525
612300 221979 470
256323 97617 443
71568 444701 449
685275 745282 504
244998 637179 509
621281 598226 447
787065 225138 509
519171 653004 509
977977 272207 525
21839 557602 470
564325 373308 470
187884 44707 383
75779 946103 525
734456 379892 509
750866 221197 509
675962 166636 509
51519 358285 443
984909 554052 525
387303 87606 443
667755 279243 509
717188 263018 509
965356 378463 525
342622 804917 509
881797 904620 445
879853 979575 507
310367 409347 441
802752 16347 509
529172 756713 509
596315 63656 470
608824 10881 470
741924 672767 504
503809 559229 470
148348 416557 449
507930 556215 470
965045 855721 507
415219 966241 525
896533 227204 525
309307 483557 449
142917 443135 449
838375 700727 525
320050 234253 407
949677 641048 525
834375 744544 468
427136 844063 525
198472 597756 470
718865 919040 525
910972 871280 476
291432 609669 470
381386 65434 443
631694 42236 509
444973 467347 444
916149 898548 476
423019 80652 449
622569 253576 470
686628 913638 525
422948 59349 449
709732 695123 504
117199 352704 443
132377 509942 449
53255 908278 525
544226 43764 470
490666 222555 449
782261 70378 509
376494 547891 470
356004 229851 443
673547 383040 509
93273 147462 375
754403 246066 509
153593 949647 525
904554 397877 525
762817 448721 509
95449 892481 525
562843 628288 509
621564 869046 525
110722 104800 354
200846 556195 470
521195 808250 509
389629 918109 525
840077 281448 525
549362 266639 470
905499 316928 525
747271 93949 509
